<?xml version="1.0" encoding="UTF-8"?>
<CustomTab xmlns="http://soap.sforce.com/2006/04/metadata">
    <customObject>true</customObject>
    <icon>Graphics_Pack_for_Tabs/Turtle_32x32_png.png</icon>
    <mobileReady>false</mobileReady>
    <motif>Custom300: TV Widescreen</motif>
</CustomTab>
